"Região 
Administrativa";Alfabetização;Qualidade do Ensino Fundamental, anos iniciais;Qualidade do Ensino Fundamental, anos finais;Abandono escolar no Ensino Médio
RIO DE JANEIRO;48,33%;5,79;5,44;12,10
PORTUARIA;51,24%;5,50;5,47;16,17
CENTRO;40,51%;5,77;5,17;6,10
RIO COMPRIDO;67,50%;5,70;4,88;11,02
BOTAFOGO;54,31%;6,19;5,19;3,80
COPACABANA;59,00%;6,23;5,13;10,65
LAGOA;55,66%;5,77;5,33;11,26
SAO CRISTOVAO;48,37%;5,89;5,27;10,56
TIJUCA;47,69%;5,63;4,98;8,44
VILA ISABEL;47,95%;5,98;4,67;6,03
RAMOS;43,17%;5,55;4,97;11,13
PENHA;45,77%;5,87;5,10;16,51
INHAUMA;41,91%;5,81;4,37;15,40
MEIER;43,88%;5,87;5,11;12,90
IRAJA;50,12%;6,09;4,97;15,17
MADUREIRA;43,10%;5,72;4,60;13,53
JACAREPAGUA;47,92%;6,06;4,88;14,17
BANGU;42,15%;5,63;4,99;9,25
CAMPO GRANDE;49,71%;5,91;4,80;9,32
SANTA CRUZ;44,11%;5,66;4,90;10,00
ILHA DO GOVERNADOR;54,79%;5,93;5,03;13,32
ANCHIETA;46,56%;5,63;4,83;19,60
SANTA TEREZA;57,86%;6,23;5,35;7,80
BARRA DA TIJUCA;45,70%;6,23;5,59;13,10
PAVUNA;42,41%;5,44;4,36;18,00
GUARATIBA;42,91%;5,83;4,94;14,28
ROCINHA;34,86%;5,57;5,56;17,40
JACAREZINHO;25,51%;5,30;5,10;8,23
COMPLEXO DO ALEMÃO;41,46%;5,35;4,40;18,80
COMPLEXO DA MARE;45,45%;5,43;4,35;19,20
VIGARIO GERAL;46,45%;5,53;4,60;12,10
REALENGO;51,61%;6,04;4,86;9,75
CIDADE DE DEUS;35,19%;5,40;4,20;2,00
