"Região 
Administrativa";"População vivendo em Favelas não-urbanizadas";"Acesso à energia elétrica";"Adensamento habitacional excessivo"
RIO DE JANEIRO;14,00%;93,95%;5,88%
PORTUARIA;4,10%;91,12%;10,20%
CENTRO;0,26%;96,91%;3,77%
RIO COMPRIDO;8,74%;90,77%;8,13%
BOTAFOGO;1,67%;98,66%;0,77%
COPACABANA;1,73%;97,20%;1,07%
LAGOA;2,71%;98,63%;1,98%
SAO CRISTOVAO;4,95%;88,83%;7,09%
TIJUCA;1,35%;97,32%;1,85%
VILA ISABEL;10,28%;92,86%;2,12%
RAMOS;24,44%;90,64%;6,63%
PENHA;7,44%;97,53%;5,93%
INHAUMA;9,83%;96,29%;6,08%
MEIER;11,03%;96,26%;3,25%
IRAJA;4,15%;97,68%;3,88%
MADUREIRA;7,87%;96,05%;6,39%
JACAREPAGUA;27,51%;93,21%;6,23%
BANGU;19,57%;92,77%;6,93%
CAMPO GRANDE;7,90%;91,94%;7,17%
SANTA CRUZ;12,56%;88,13%;9,70%
ILHA DO GOVERNADOR;11,38%;97,81%;4,33%
ANCHIETA;15,84%;95,78%;7,96%
SANTA TEREZA;21,43%;97,01%;5,56%
BARRA DA TIJUCA;16,30%;95,72%;3,83%
PAVUNA;22,78%;89,00%;9,21%
GUARATIBA;22,54%;84,25%;9,16%
ROCINHA;99,99%;91,05%;10,96%
JACAREZINHO;88,48%;81,81%;15,89%
COMPLEXO DO ALEMÃO;23,09%;66,00%;8,88%
COMPLEXO DA MARE;10,14%;93,08%;11,30%
VIGARIO GERAL;14,84%;92,07%;8,79%
REALENGO;9,05%;96,00%;7,01%
CIDADE DE DEUS;12,23%;89,76%;10,93%
